{
  "name": "io.cordova.myapp37fe18",
  "deafaultbrowser": "chrome",
  "app_id": "",
  "gulpDependantTasks": [
    "sass"
  ],
  "gulpStartupTasks": [
    "watch"
  ],
  "integrations": {
    "cordova": {}
  },
  "type": "ionic1",
  "watchPatterns": []
}
