{
  "prepare_queue": {
    "installed": [],
    "uninstalled": []
  },
  "config_munge": {
    "files": {}
  },
  "installed_plugins": {
    "cordova-plugin-console": {
      "PACKAGE_NAME": "io.cordova.myapps37fe18"
    },
    "cordova-plugin-device": {
      "PACKAGE_NAME": "io.cordova.myapps37fe18"
    },
    "cordova-plugin-ignore-lint-translation": {
      "PACKAGE_NAME": "io.cordova.myapps37fe18"
    },
    "cordova-plugin-network-information": {
      "PACKAGE_NAME": "io.cordova.myapps37fe18"
    },
    "cordova-plugin-splashscreen": {
      "PACKAGE_NAME": "io.cordova.myapps37fe18"
    },
    "cordova-plugin-statusbar": {
      "PACKAGE_NAME": "io.cordova.myapps37fe18"
    },
    "cordova-plugin-whitelist": {
      "PACKAGE_NAME": "io.cordova.myapps37fe18"
    },
    "cordova-sqlite-storage": {
      "PACKAGE_NAME": "io.cordova.myapps37fe18"
    },
    "ionic-plugin-keyboard": {
      "PACKAGE_NAME": "io.cordova.myapps37fe18"
    },
    "phonegap-plugin-barcodescanner": {
      "PACKAGE_NAME": "io.cordova.myapps37fe18"
    }
  },
  "dependent_plugins": {
    "cordova-plugin-compat": {
      "PACKAGE_NAME": "io.cordova.myapps37fe18"
    }
  }
}